match_id,inning,batting_team,bowling_team,over,ball,batsman,non_striker,bowler,is_super_over,wide_runs,bye_runs,legbye_runs,noball_runs,penalty_runs,batsman_runs,extra_runs,total_runs,player_dismissed,dismissal_kind,fielder
1,1,Sunrisers Hyderabad,Royal Challengers Bangalore,1,2,DA Warner,S Dhawan,TS Mills,0,0,0,0,0,0,0,0,0,,,
1,1,Sunrisers Hyderabad,Royal Challengers Bangalore,1,3,DA Warner,S Dhawan,TS Mills,0,0,0,0,0,0,4,0,4,,,
1,1,Sunrisers Hyderabad,Royal Challengers Bangalore,1,4,DA Warner,S Dhawan,TS Mills,0,0,0,0,0,0,0,0,0,,,
1,1,Sunrisers Hyderabad,Royal Challengers Bangalore,1,5,DA Warner,S Dhawan,TS Mills,0,2,0,0,0,0,0,2,2,,,
1,1,Sunrisers Hyderabad,Royal Challengers Bangalore,1,6,S Dhawan,DA Warner,TS Mills,0,0,0,0,0,0,0,0,0,,,
1,1,Sunrisers Hyderabad,Royal Challengers Bangalore,1,7,S Dhawan,DA Warner,TS Mills,0,0,0,1,0,0,0,1,1,,,
1,1,Sunrisers Hyderabad,Royal Challengers Bangalore,2,1,S Dhawan,DA Warner,A Choudhary,0,0,0,0,0,0,1,0,1,,,
2,1,Mumbai Indians,Rising Pune Supergiant,5,5,JC Buttler,RG Sharma,Imran Tahir,0,0,0,0,0,0,1,0,1,,,
2,1,Mumbai Indians,Rising Pune Supergiant,5,6,RG Sharma,JC Buttler,Imran Tahir,0,0,0,0,0,0,1,0,1,,,
2,1,Mumbai Indians,Rising Pune Supergiant,6,1,RG Sharma,JC Buttler,DL Chahar,0,0,0,0,0,0,1,0,1,,,
2,1,Mumbai Indians,Rising Pune Supergiant,6,2,JC Buttler,RG Sharma,DL Chahar,0,0,0,0,0,0,0,0,0,,,
2,1,Mumbai Indians,Rising Pune Supergiant,6,3,JC Buttler,RG Sharma,DL Chahar,0,0,0,0,0,0,0,0,0,,,
2,1,Mumbai Indians,Rising Pune Supergiant,6,4,JC Buttler,RG Sharma,DL Chahar,0,0,0,0,0,0,4,0,4,,,
2,1,Mumbai Indians,Rising Pune Supergiant,6,5,JC Buttler,RG Sharma,DL Chahar,0,0,0,0,0,0,6,0,6,,,
586,1,Rising Pune Supergiants,Kings XI Punjab,1,1,AM Rahane,F du Plessis,Sandeep Sharma,0,0,0,0,0,0,0,0,0,,,
586,1,Rising Pune Supergiants,Kings XI Punjab,1,2,AM Rahane,F du Plessis,Sandeep Sharma,0,0,0,0,0,0,0,0,0,,,
586,1,Rising Pune Supergiants,Kings XI Punjab,1,3,AM Rahane,F du Plessis,Sandeep Sharma,0,0,0,0,0,0,0,0,0,,,
586,1,Rising Pune Supergiants,Kings XI Punjab,1,4,AM Rahane,F du Plessis,Sandeep Sharma,0,0,0,0,0,0,4,0,4,,,
586,1,Rising Pune Supergiants,Kings XI Punjab,1,5,AM Rahane,F du Plessis,Sandeep Sharma,0,0,0,0,0,0,0,0,0,,,
586,1,Rising Pune Supergiants,Kings XI Punjab,1,6,AM Rahane,F du Plessis,Sandeep Sharma,0,0,0,0,0,0,0,0,0,,,
586,1,Rising Pune Supergiants,Kings XI Punjab,2,1,F du Plessis,AM Rahane,KJ Abbott,0,0,0,0,0,0,0,0,0,,,
587,1,Royal Challengers Bangalore,Delhi Daredevils,1,2,CH Gayle,V Kohli,Z Khan,0,0,0,0,0,0,0,0,0,,,
587,1,Royal Challengers Bangalore,Delhi Daredevils,1,3,CH Gayle,V Kohli,Z Khan,0,0,0,0,0,0,0,0,0,CH Gayle,caught,JP Duminy
587,1,Royal Challengers Bangalore,Delhi Daredevils,1,4,AB de Villiers,V Kohli,Z Khan,0,0,0,0,0,0,0,0,0,,,
536,1,Rajasthan Royals,Kings XI Punjab,1,1,AM Rahane,SR Watson,Sandeep Sharma,0,0,0,0,0,0,1,0,1,,,
536,1,Rajasthan Royals,Kings XI Punjab,1,2,SR Watson,AM Rahane,Sandeep Sharma,0,0,0,1,0,0,0,1,1,,,
536,1,Rajasthan Royals,Kings XI Punjab,1,3,AM Rahane,SR Watson,Sandeep Sharma,0,0,0,0,0,0,2,0,2,,,
536,1,Rajasthan Royals,Kings XI Punjab,1,4,AM Rahane,SR Watson,Sandeep Sharma,0,0,0,0,0,0,1,0,1,,,
537,1,Sunrisers Hyderabad,Kolkata Knight Riders,4,2,S Dhawan,DA Warner,M Morkel,0,0,0,0,0,0,0,0,0,,,
537,1,Sunrisers Hyderabad,Kolkata Knight Riders,4,3,S Dhawan,DA Warner,M Morkel,0,0,0,0,0,0,0,0,0,,,
537,1,Sunrisers Hyderabad,Kolkata Knight Riders,4,4,S Dhawan,DA Warner,M Morkel,0,0,0,0,0,0,1,0,1,,,
537,1,Sunrisers Hyderabad,Kolkata Knight Riders,4,5,DA Warner,S Dhawan,M Morkel,0,0,0,0,0,0,4,0,4,,,
537,1,Sunrisers Hyderabad,Kolkata Knight Riders,4,6,DA Warner,S Dhawan,M Morkel,0,0,0,0,0,0,1,0,1,,,
